Untitled
…
Prparation

# Transform to non-spatial dataset
dataset.tmp <- as.tbl(Stations_covariates_wgs84@data)
dataset.tmp

## # A tibble: 740 x 16
##        X   lat   lon  Year Density coords.x1 coords.x2 optional SeaLim
##    <int> <dbl> <dbl> <int>   <dbl>     <dbl>     <dbl> <lgl>     <dbl>
##  1     1  47.5 -2.56  1984   19.1    281406.  6722226. TRUE          0
##  2     2  47.5 -2.66  1984    1.11   274113.  6721279. TRUE          0
##  3     3  47.5 -2.54  1984  219.     283561.  6725842. TRUE          0
##  4     4  47.5 -2.58  1984   24.4    279944.  6721309. TRUE          0
##  5     5  47.5 -2.55  1984   13.2    281920.  6721299. TRUE          0
##  6     6  47.5 -2.56  1984    4.46   281463.  6723744. TRUE          0
##  7     7  47.5 -2.54  1984    0      282799.  6722165. TRUE          0
##  8     8  47.5 -2.54  1984    7.84   283263.  6721242. TRUE          0
##  9     9  47.5 -2.64  1984    1.17   275144.  6720722. TRUE          0
## 10    10  47.4 -2.58  1984    0      280195.  6719695. TRUE          0
## #  with 730 more rows, and 7 more variables: Coast_pt <dbl>,
## #   Zone_bio_pt <dbl>, Sedim <fct>, id <int>, Bathy_pt <dbl>,
## #   Pente_pt <dbl>, TPI_pt <dbl>
…
